…
## How does the performance gap between male and female athletes (measured by fastest race times) vary across age categories?

For easier time comparisons, I made a new column where the time is
mutated to be in seconds:

``` r
Q3_df <- trail_races %>%
  mutate(time_seconds = as.numeric(Time))

Q3_df
```

    ## # A tibble: 1,669 × 13
    ##      Pos Name         Time       Category `Cat Pos` Gender `Gen Pos` City  State
    ##    <dbl> <chr>        <Period>   <fct>        <dbl> <fct>      <dbl> <fct> <fct>
    ##  1     1 Caleb Soren… 26M 33.82S Overall…         1 Male           1 Pres… Iowa 
    ##  2     2 Joshua Burb… 28M 46.57S Overall…         2 Male           2 Des … Iowa 
    ##  3     3 Dillon Ver … 29M 38.18S Overall…         3 Male           3 Runn… Iowa 
    ##  4     4 Anthony All… 31M 26.23S 30-34            1 Male           4 Colf… Iowa 
    ##  5     5 Nathan Holm… 32M 4.91S  30-34            2 Male           5 Des … Iowa 
    ##  6     6 Ryan Klumpe… 33M 23.17S 30-34            3 Male           6 Des … Iowa 
    ##  7     7 Jeremy Muel… 33M 37.84S 45-49            1 Male           7 Wauk… Iowa 
    ##  8     8 Michael Mey… 33M 43.37S 35-39            1 Male           8 West… Iowa 
    ##  9     9 Chad Mokles… 34M 2.33S  30-34            4 Male           9 Wind… Iowa 
    ## 10    10 Brian Stewa… 34M 24S    50-54            1 Male          10 Wauk… Iowa 
    ## # ℹ 1,659 more rows
    ## # ℹ 4 more variables: Start <Period>, Dist <dbl>, Trail <fct>,
    ## #   time_seconds <dbl>
…
    ## [1]  4.00  8.00 13.10  6.80  3.65  6.20  3.10  3.40

I will also create a new column that removes the category variable
“Overall Winners” for simplicity:

``` r
Q3_df <- Q3_df %>%
  filter(Category != "Overall Winners")

Q3_df # checking it worked
```

    ## # A tibble: 1,568 × 13
    ##      Pos Name         Time       Category `Cat Pos` Gender `Gen Pos` City  State
    ##    <dbl> <chr>        <Period>   <fct>        <dbl> <fct>      <dbl> <fct> <fct>
    ##  1     4 Anthony All… 31M 26.23S 30-34            1 Male           4 Colf… Iowa 
    ##  2     5 Nathan Holm… 32M 4.91S  30-34            2 Male           5 Des … Iowa 
    ##  3     6 Ryan Klumpe… 33M 23.17S 30-34            3 Male           6 Des … Iowa 
    ##  4     7 Jeremy Muel… 33M 37.84S 45-49            1 Male           7 Wauk… Iowa 
    ##  5     8 Michael Mey… 33M 43.37S 35-39            1 Male           8 West… Iowa 
    ##  6     9 Chad Mokles… 34M 2.33S  30-34            4 Male           9 Wind… Iowa 
    ##  7    10 Brian Stewa… 34M 24S    50-54            1 Male          10 Wauk… Iowa 
    ##  8    11 Luis Gomez   34M 42.08S 35-39            2 Male          11 Des … Iowa 
    ##  9    12 Michael Van… 35M 7.37S  35-39            3 Male          12 Anke… Iowa 
    ## 10    14 Jason Pugh   35M 20.28S 30-34            5 Male          13 West… Iowa 
    ## # ℹ 1,558 more rows
    ## # ℹ 4 more variables: Start <Period>, Dist <dbl>, Trail <fct>,
    ## #   time_seconds <dbl>
…
top3_runners <- top3_runners %>%
  select(
    Trail,
    Dist, 
    Category,
    Gender,
    Name,
    time_seconds,
    rank_in_group
  )

top3_runners
```

    ## # A tibble: 732 × 7
    ## # Groups:   Trail, Dist, Category, Gender [297]
    ##    Trail   Dist Category Gender Name             time_seconds rank_in_group
    ##    <fct>  <dbl> <fct>    <fct>  <chr>                   <dbl>         <int>
    ##  1 Center     4 20-24    Female Haileigh Steffen        3122.             1
    ##  2 Center     4 20-24    Male   Ashwin Sinha            2208.             1
    ##  3 Center     4 25-29    Female Shay Vandersluis        2525.             1
    ##  4 Center     4 25-29    Female Molly Luzbetak          2629.             2
    ##  5 Center     4 25-29    Female Devyn Atzen             4720.             3
    ##  6 Center     4 25-29    Male   Calvin Knuth            2639.             1
    ##  7 Center     4 25-29    Male   AJ Stills               2782.             2
    ##  8 Center     4 25-29    Male   Rian Simpson            2951.             3
    ##  9 Center     4 30-34    Female Danielle Curtis         2491.             1
    ## 10 Center     4 30-34    Female Olivia Meyer            2491.             2
    ## # ℹ 722 more rows

``` r
# Making sure it made a new df instead of altering the original
trail_races
```

    ## # A tibble: 1,669 × 12
    ##      Pos Name         Time       Category `Cat Pos` Gender `Gen Pos` City  State
    ##    <dbl> <chr>        <Period>   <fct>        <dbl> <fct>      <dbl> <fct> <fct>
    ##  1     1 Caleb Soren… 26M 33.82S Overall…         1 Male           1 Pres… Iowa 
    ##  2     2 Joshua Burb… 28M 46.57S Overall…         2 Male           2 Des … Iowa 
    ##  3     3 Dillon Ver … 29M 38.18S Overall…         3 Male           3 Runn… Iowa 
    ##  4     4 Anthony All… 31M 26.23S 30-34            1 Male           4 Colf… Iowa 
    ##  5     5 Nathan Holm… 32M 4.91S  30-34            2 Male           5 Des … Iowa 
    ##  6     6 Ryan Klumpe… 33M 23.17S 30-34            3 Male           6 Des … Iowa 
    ##  7     7 Jeremy Muel… 33M 37.84S 45-49            1 Male           7 Wauk… Iowa 
    ##  8     8 Michael Mey… 33M 43.37S 35-39            1 Male           8 West… Iowa 
    ##  9     9 Chad Mokles… 34M 2.33S  30-34            4 Male           9 Wind… Iowa 
    ## 10    10 Brian Stewa… 34M 24S    50-54            1 Male          10 Wauk… Iowa 
    ## # ℹ 1,659 more rows
    ## # ℹ 3 more variables: Start <Period>, Dist <dbl>, Trail <fct>
I am now going to summarize the average times for each age group and
gender per race and distance:

``` r
gap_run_time <- Q3_df %>%
  group_by(Trail, Dist, Category, Gender) %>%
  summarise(
    avg_time = mean(time_seconds, na.rm = TRUE),
    .groups = "drop"
  )

gap_run_time
```

    ## # A tibble: 297 × 5
    ##    Trail   Dist Category Gender avg_time
    ##    <fct>  <dbl> <fct>    <fct>     <dbl>
    ##  1 Center     4 20-24    Female    3122.
    ##  2 Center     4 20-24    Male      2208.
    ##  3 Center     4 25-29    Female    3867.
    ##  4 Center     4 25-29    Male      2885.
    ##  5 Center     4 30-34    Female    2919.
    ##  6 Center     4 30-34    Male      2194.
    ##  7 Center     4 35-39    Female    3422.
    ##  8 Center     4 35-39    Male      2565.
    ##  9 Center     4 40-44    Female    4090.
    ## 10 Center     4 40-44    Male      2610.
    ## # ℹ 287 more rows
…
